<?xml version="1.0" encoding="UTF-8"?>
<DataFileEntity>
   <description></description>
   <name>login-xpaths</name>
   <tag></tag>
   <containsHeaders>true</containsHeaders>
   <csvSeperator></csvSeperator>
   <dataFileGUID>9f712d55-2698-4ce9-9753-c393769dc5f1</dataFileGUID>
   <dataSourceUrl></dataSourceUrl>
   <driver>InternalData</driver>
   <data>txt_username %2F%2Finput%5B%40id%3D%22lims_userNameID%22%5D</data>
   <data>txt_password %2F%2Finput%5B%40id%3D%22lims_passwordID%22%5D</data>
   <data>btn_login %2F%2Finput%5B%40id%3D%22lims_buttonID%22%5D%5B%40value%3D%22Login%22%5D</data>
   <data>cmb_tenant %2F%2Fselect%5B%40name%3D%22tenantSelect%22%5D</data>
   <data>btn_continue %2F%2Finput%5B%40value%3D%22Continue%22%5D</data>
   <data>testobj %2F%2Finput%5B%40id%3D%22%241%22%5D</data>
   <internalDataColumns>
      <columnIndex>0</columnIndex>
      <name>objName</name>
      <size>6</size>
   </internalDataColumns>
   <internalDataColumns>
      <columnIndex>1</columnIndex>
      <name>xPath</name>
      <size>6</size>
   </internalDataColumns>
   <isInternalPath>false</isInternalPath>
   <query></query>
   <secureUserAccount>false</secureUserAccount>
   <sheetName></sheetName>
   <usingGlobalDBSetting>false</usingGlobalDBSetting>
</DataFileEntity>
